---Shop #ID  ID006--------------------
Name                Qty          COST
ItemId25              5         $5.95
ItemId22             15         $3.95
ItemId10              1         $1.95
ItemId03              1         $3.50
ItemId25              1         $1.95
ItemId21              1         $3.50
Total sales          24        $99.90
---Shop #ID  ID001--------------------
Name                Qty          COST
ItemId05              5         $5.95
ItemId02             15         $3.95
ItemId10              1         $1.95
ItemId03              1         $3.50
Total sales          22        $94.45
---Shop #ID  ID002--------------------
Name                Qty          COST
ItemId15              5         $5.95
ItemId01              1         $3.50
Total sales           6        $33.25
---Shop #ID  ID003--------------------
Name                Qty          COST
ItemId05              5         $5.95
ItemId02             15         $3.95
ItemId12            115        $13.95
ItemId05              1         $1.95
ItemId15              1         $1.95
ItemId21              1         $3.50
ItemId05              1         $1.95
Total sales         139      $1702.60
